[
  {
    "Request": 1,
    "Stream": 4,
    "Speciality": "Програмне забеспечення систем",
    "Exams": [
      {
        "id": 1,
        "Primary": true,
        "Foreign": false,
        "Mark": 4.9
      },
      {
        "id":2,
        "Primary":false,
        "Foreign":true,
        "Mark": 4.3
      }
    ],
    "Form": 1,
    "Person": {
      "id": 1,
      "Surname": "Surname1",
      "Name": "Name1",
      "Patronymic": "Patronymic1"
    }
  },
  {
    "Request": 2,
    "Stream": 4,
    "Speciality": "Програмне забеспечення систем",
    "Exams": [
      {
        "id": 3,
        "Primary": true,
        "Foreign": false,
        "Mark": 5
      },
      {
        "id": 4,
        "Primary": false,
        "Foreign": true,
        "Mark": 4.5
      }
    ],
    "Form": 1,
    "Person": {
      "id": 2,
      "Surname": "Surname2",
      "Name": "Name2",
      "Patronymic": "Patronymic2"
    }
  },
  {
    "Request": 3,
    "Stream": 4,
    "Speciality": "Програмне забеспечення систем",
    "Exams": [
      {
        "id": 5,
        "Primary": true,
        "Foreign": false,
        "Mark": 4.9
      },
      {
        "id":6,
        "Primary":false,
        "Foreign":true,
        "Mark": 4.3
      }
    ],
    "Form": 2,
    "Person": {
      "id": 1,
      "Surname": "Surname1",
      "Name": "Name1",
      "Patronymic": "Patronymic1"
    }
  }
]
