<?xml version="1.0" standalone="no"?>
<!DOCTYPE svg PUBLIC "-//W3C//DTD SVG 1.1//EN" "http://www.w3.org/Graphics/SVG/1.1/DTD/svg11.dtd" >
<svg xmlns="http://www.w3.org/2000/svg">
<metadata>
This is a custom SVG font generated by IcoMoon.
<iconset grid="32"></iconset>
</metadata>
<defs>
<font id="icomoon" horiz-adv-x="1024" >
<font-face units-per-em="1024" ascent="960" descent="-64" />
<missing-glyph horiz-adv-x="1024" />
<glyph class="hidden" unicode="&#xf000;" d="M0,960L 1024 -64L0 -64 z" horiz-adv-x="0" />
<glyph unicode="&#xf31c;" d="M 467,525q 18,19 45,19t 45-19l 448-451q 19-19 19-46t-19-46l-26-27q-19-19 -45.5-19t-45.5,19l-376,379l-376-379q-19-19 -45.5-19t-45.5,19l-26,27q-19,19 -19,46t 19,46zM 979,370q-19-19 -45.5-19t-45.5,19l-376,380l-376-380q-19-19 -45.5-19t-45.5,19
l-26,28q-19,19 -19,45.5t 19,45.5l 448,452q 18,19 45,19t 45-19l 448-452q 19-19 19-45.5t-19-45.5z"  />
<glyph unicode="&#xf31d;" d="M 557,370q-18-18 -45-18t-45,18l-448,452q-19,19 -19,46t 19,45l 26,28q 19,19 45.5,19t 45.5-19l 376-379l 376,379q 19,19 45.5,19t 45.5-19l 26-28q 19-18 19-45t-19-46zM 45,525q 19,19 45.5,19t 45.5-19l 376-379l 376,379q 19,19 45.5,19t 45.5-19l 26-27
q 19-19 19-45.5t-19-45.5l-448-452q-18-19 -45-19t-45,19l-448,452q-19,19 -19,45.5t 19,45.5z"  />
<glyph unicode="&#xf31b;" d="M 589,493q 19-18 19-44.5t-19-45.5l-451-448q-19-19 -46-19t-46,19l-27,27q-19,18 -19,44.5t 19,45.5l 379,376l-379,376q-19,19 -19,45.5t 19,45.5l 27,26q 19,19 46,19t 46-19zM 435-18q-19,18 -19,44.5t 19,45.5l 379,376l-379,376q-19,19 -19,45.5t 19,45.5l 27,26
q 19,19 45.5,19t 45.5-19l 452-448q 19-18 19-44.5t-19-45.5l-452-448q-19-19 -45.5-19t-45.5,19z"  />
<glyph unicode="&#xf31a;" d="M 435,493q-19-18 -19-44.5t 19-45.5l 451-448q 19-19 46-19t 46,19l 27,27q 19,18 19,44.5t-19,45.5l-379,376l 379,376q 19,19 19,45.5t-19,45.5l-27,26q-19,19 -46,19t-46-19zM 589-18q 19,18 19,44.5t-19,45.5l-379,376l 379,376q 19,19 19,45.5t-19,45.5l-27,26
q-19,19 -45.5,19t-45.5-19l-452-448q-19-18 -19-44.5t 19-45.5l 452-448q 19-19 45.5-19t 45.5,19z"  />
<glyph unicode="&#xe000;" d="M 959.36,741.792c-3.072,50.24-44.384,90.112-95.36,90.112l-96,0 l0,32 L 768,863.968 
		c0,53.024-43.008,96-96,96L 352,959.968 c-53.024,0-96-42.976-96-96l0-0.032 l0-32 L 160,831.936 c-51.040,0-92.32-39.872-95.392-90.112L 64,741.824 l0-37.856 l0-32 c0-35.328, 28.672-64, 64-64l0,0l0-544 
		c0-70.688, 57.312-128, 128-128l 512,0 c 70.688,0, 128,57.312, 128,128l0,544 l0,0c 35.328,0, 64,28.672, 64,64l0,32 L 960,741.792 L 959.36,741.792 z M 320,863.936c0,17.696, 14.304,32, 32,32l 320,0 
		c 17.696,0, 32-14.304, 32-32l0-32 L 320,831.936 L 320,863.936 z M 832,63.936c0-35.264-28.736-64-64-64L 256-0.064 c-35.296,0-64,28.736-64,64l0,544 l 640,0 L 832,63.936 z M 896,703.968l0-32 L 128,671.968 l0,32 L 128,735.936 
		c0,17.696, 14.304,32, 32,32l 704,0 c 17.696,0, 32-14.304, 32-32L 896,703.968 zM 288,63.808l 64,0 c 17.696,0, 32,14.304, 32,32l0,416 c0,17.696-14.304,32-32,32L 288,543.808 
		c-17.696,0-32-14.304-32-32l0-416 C 256,78.112, 270.304,63.808, 288,63.808z M 288,511.84l 64,0 l0-416 L 288,95.84 L 288,511.84 zM 480,63.808l 64,0 c 17.696,0, 32,14.304, 32,32l0,416 c0,17.696-14.304,32-32,32l-64,0 
		c-17.696,0-32-14.304-32-32l0-416 C 448,78.112, 462.304,63.808, 480,63.808z M 480,511.84l 64,0 l0-416 l-64,0 L 480,511.84 zM 672,63.808l 64,0 c 17.696,0, 32,14.304, 32,32l0,416 c0,17.696-14.304,32-32,32l-64,0 
		c-17.696,0-32-14.304-32-32l0-416 C 640,78.112, 654.304,63.808, 672,63.808z M 672,511.84l 64,0 l0-416 l-64,0 L 672,511.84 z"  />
<glyph unicode="&#xe001;" d="M 940.64,877.44C 888,930.016, 818.688,960, 750.368,960c-57.632,0-110.688-21.376-149.44-60.064l-155.744-156.928
	c-0.48-0.448-1.024-0.736-1.504-1.216c-0.256-0.256-0.416-0.608-0.672-0.832l 0.064-0.064L 112.544,407.808
	c-15.232-15.136-26.272-33.984-32.416-54.56l-75.168-272.256C 4.896,80.256,0,58.88,0,48C0-13.824, 50.208-64, 112.128-64
	c 12.32,0, 36.16,5.888, 37.024,6.016l 271.296,71.328c 20.608,6.112, 39.328,17.248, 54.56,32.512l 488.416,492.256
	C 1052.256,627.008, 1042.24,776, 940.64,877.44z M 512.448,198.56c-2.624,28.864-10.784,57.184-23.008,84.064l 302.56,302.528
	c 18.496-58.432, 8.992-119.552-31.552-160.128c-0.256-0.256-0.576-0.416-0.8-0.672l 0.448-0.416l-247.296-249.28
	C 512.8,182.624, 513.184,190.432, 512.448,198.56z M 473.376,311.808c-11.936,19.616-25.504,38.56-42.304,55.328
	c-19.552,19.552-41.984,34.88-65.408,47.744l 305.024,305.024c 23.936-10.624, 46.88-25.76, 67.136-46.016c 17.312-17.248, 30.688-36.576, 40.992-56.672
	L 473.376,311.808z M 335.552,430.016c-29.632,11.936-60.672,18.752-91.776,19.168l 246.496,248.384c 37.728,36.8, 92.672,47.392, 146.784,33.984
	L 335.552,430.016z M 133.344,4.064C 129.856,3.264, 119.008,0.512, 111.648,0C 85.344,0.32, 64,21.696, 64,48
	c 0.384,5.376, 2.528,14.624, 3.264,17.984l 33.696,122.048c 36.576,0.992, 75.936-13.248, 106.88-44.256c 31.424-31.36, 46.208-71.488, 44.608-108.512
	L 133.344,4.064z M 283.968,43.616c-0.768,42.944-18.24,87.616-53.504,122.816C 197.12,199.808, 153.472,219.072, 109.952,220.8l 31.872,115.424
	c 2.304,7.68, 6.88,15.264, 12.512,21.888c 64.192,45.952, 162.912,32.384, 231.488-36.256c 72.544-72.512, 83.744-178.752, 27.872-242.176
	c-3.712-1.952-7.456-3.808-11.488-4.992L 283.968,43.616z M 918.112,583.296l-53.888-54.304c0,7.232, 0.864,14.176, 0.192,21.568
	c-5.632,61.92-34.496,121.792-81.376,168.608c-52.128,52.16-121.248,82.080-189.696,82.272l 52.992,53.44C 672.864,881.344, 709.888,896, 750.368,896
	c 51.488,0, 104.384-23.296, 145.056-63.84c 38.176-38.112, 60.928-85.472, 64.192-133.376C 962.624,654.080, 947.872,613.088, 918.112,583.296z"  />
<glyph unicode="&#xe002;" d="M 640,959.84c-212.064,0-384-171.936-384-384c0-64.832, 16.224-125.856, 44.64-179.456l-267.008-266.944l 0.224-0.192
		C 12.992,108.736,0,80.32,0,48.736c0-62.368, 50.56-112.928, 112.928-112.928c 31.52,0, 59.968,12.992, 80.48,33.888l-0.064,0.064l 266.912,266.88
		c 53.632-28.512, 114.752-44.8, 179.744-44.8c 212.064,0, 384,171.936, 384,384C 1024,787.904, 852.064,959.84, 640,959.84z M 153.44,9.696
		c-10.304-10.688-24.576-17.376-40.512-17.376c-31.2,0-56.48,25.248-56.48,56.448c0,15.936, 6.72,30.176, 17.376,40.512l-0.288,0.256l 258.112,258.112
		c 22.56-30.432, 49.44-57.312, 79.808-79.936L 153.44,9.696z M 640,255.808c-176.704,0-320,143.328-320,320c0,176.704, 143.296,320, 320,320
		c 176.672,0, 320-143.296, 320-320C 960,399.136, 816.672,255.808, 640,255.808zM 640,799.84 C 648.8,799.84 656,792.672 656,783.84 C 656,775.008 648.8,767.84 640,767.84 C 533.952,767.84 448,681.856 448,575.84 C 448,567.008 440.832,559.84 432,559.84 C 423.168,559.84 416,567.008 416,575.84 C 416,699.552 516.256,799.84 640,799.84 Z"  />
<glyph unicode="&#xe003;" d="M 995.52,53.248c-6.432,4.256-123.136,80.8-296.736,118.368c 63.68,80.672, 104.576,189.184, 121.952,261.408
	c 24.128,100.096, 14.752,295.936-81.376,417.984C 683.168,922.336, 604.544,960, 512,960c-92.544,0-171.168-37.696-227.328-108.992
	C 188.544,728.992, 179.2,533.152, 203.296,433.056c 17.376-72.224, 58.24-180.736, 121.952-261.408c-173.6-37.568-290.304-114.112-296.704-118.368
	c-23.456-15.616-33.952-44.8-25.76-71.744C 10.912-45.504, 35.84-64, 64-64l 896,0 c 28.192,0, 53.056,18.496, 61.248,45.504
	C 1029.472,8.448, 1018.976,37.632, 995.52,53.248z M 648.544,211.264l-10.432-13.248c-76.32-87.68-175.84-87.68-252.128,0l-10.464,13.248
	c-89.12,112.928-133.344,262.304-114.304,404.8C 278.656,752.992, 357.12,896, 512,896c 154.88,0, 233.376-143.040, 250.816-279.968
	C 781.792,473.472, 737.728,324.256, 648.544,211.264z M 64,0c 4.416,2.944, 112.832,74.048, 274.752,109.056l 79.488,17.184C 446.624,107.616, 477.76,96, 512,96
	c 34.272,0, 65.376,11.616, 93.76,30.24l 79.488-17.184c 160.64-34.752, 268.672-105.056, 274.752-109.056L 64,0 z"  />
<glyph unicode="&#xe004;" d="M 1024,704c0,44.992-30.624,83.456-74.432,93.568L 533.152,893.664C 526.176,895.232, 519.072,896, 512,896
		c-7.072,0-14.176-0.768-21.6-2.432l-415.968-96C 30.592,787.456,0,748.992,0,704s 30.624-83.456, 74.4-93.568L 160,590.688L 160,320 c0-84.928, 97.216-160, 352-160
		s 352,75.072, 352,160l0,270.688 l 85.568,19.744C 993.376,620.544, 1024,659.008, 1024,704z M 800,320c0-35.36-96-96-288-96c-192,0-288,60.64-288,96l0,255.904 l 266.816-61.568
		C 497.792,512.768, 504.928,512, 512,512c 7.072,0, 14.208,0.768, 21.568,2.432L 800,575.904L 800,320 z M 519.2,576.8C 516.8,576.288, 514.4,576, 512,576
		s-4.832,0.288-7.2,0.8l-416,96C 74.272,676.16, 64,689.088, 64,704s 10.272,27.84, 24.8,31.2l 416,96C 507.168,831.712, 509.568,832, 512,832
		s 4.832-0.288, 7.2-0.8l 416-96C 949.696,731.84, 960,718.912, 960,704s-10.304-27.84-24.8-31.2L 519.2,576.8zM 928,544 C 928,561.696 942.304,576 960,576 C 977.664,576 992,561.696 992,544 L 992,256 C 992,238.304 977.664,224 960,224 C 942.304,224 928,238.304 928,256 L 928,544 ZM 960,192 C 995.328,192 1024,99.328 1024,64 C 1024,28.672 995.328,0 960,0 C 924.64,0 896,28.672 896,64 C 896,99.328 924.64,192 960,192 Z"  />
<glyph unicode="&#xe005;" d="M 512,639.968c-141.408,0-256-114.592-256-256c0-141.376, 114.592-256, 256-256
		c 141.376,0, 256,114.624, 256,256C 768,525.344, 653.376,639.968, 512,639.968z M 657.76,259.008c-68.992-80.512-190.176-89.824-270.688-20.8
		c-80.544,68.992-89.824,190.208-20.8,270.688c 68.96,80.544, 190.176,89.824, 270.688,20.8C 717.44,460.736, 726.752,339.488, 657.76,259.008zM 512,511.968 C 520.832,511.968 528,504.8 528,495.968 C 528,487.136 520.832,479.968 512,479.968 C 458.976,479.968 416.032,436.992 416,384 L 416,383.936 C 416,375.136 408.832,367.936 400,367.936 C 391.168,367.936 384,375.136 384,383.936 L 384,384 C 384.032,454.656 441.312,511.968 512,511.968 ZM 943.744,670.656l-138.688,23.136l-43.936,109.888
		C 746.432,840.32, 711.424,864, 672,864L 352,864 C 312.576,864, 277.568,840.32, 262.848,803.648L 218.944,693.792L 80.288,670.656C 33.76,662.944,0,623.136,0,576l0-480 
		c0-52.928, 43.072-96, 96-96l 832,0 c 52.928,0, 96,43.072, 96,96L 1024,576 C 1024,623.136, 990.24,662.944, 943.744,670.656z M 960,96c0-17.696-14.304-32-32-32L 96,64 
		c-17.696,0-32,14.304-32,32L 64,576 c0,15.648, 11.328,28.992, 26.752,31.552l 174.208,29.024l 57.312,143.296C 327.168,792, 338.912,800, 352,800l 320,0 
		c 13.056,0, 24.8-7.968, 29.696-20.128l 57.312-143.296l 174.24-29.024C 948.672,604.992, 960,591.648, 960,576L 960,96 z"  />
<glyph unicode="&#xe006;" d="M 972.512,554.24l-98.048,19.648c-4.928,14.176-10.752,27.936-17.184,41.248l 55.552,83.328
		c 16.928,25.376, 13.568,59.2-8,80.736l-61.568,61.568c-12.384,12.384-28.736,18.752-45.312,18.752c-12.256,0-24.64-3.52-35.424-10.752
		l-83.328-55.52c-13.376,6.464-27.136,12.224-41.312,17.152L 618.24,908.48c-5.952,29.952-32.256,51.456-62.752,51.456l-87.040,0 
		c-30.496,0-56.768-21.536-62.752-51.456l-19.648-98.080c-14.176-4.928-27.936-10.72-41.248-17.152L 261.504,848.768
		C 250.656,856, 238.304,859.52, 226.016,859.52c-16.544,0-32.896-6.368-45.28-18.752L 119.2,779.2c-21.568-21.568-24.928-55.36-8-80.736l 55.52-83.328
		c-6.464-13.344-12.224-27.104-17.152-41.28L 51.456,554.24C 21.536,548.256,0,521.984,0,491.488l0-87.040 c0-30.496, 21.536-56.8, 51.456-62.752
		l 98.080-19.68c 4.928-14.176, 10.72-27.936, 17.152-41.248L 111.2,197.44c-16.928-25.376-13.568-59.2, 8-80.736l 61.568-61.568
		c 12.384-12.384, 28.736-18.752, 45.28-18.752c 12.288,0, 24.672,3.552, 35.456,10.752l 83.328,55.552c 13.344-6.496, 27.104-12.256, 41.28-17.184
		l 19.616-98.048c 5.984-29.952, 32.256-51.488, 62.752-51.488l 87.040,0 c 30.496,0, 56.8,21.568, 62.752,51.488l 19.68,98.048
		c 14.176,4.928, 27.936,10.752, 41.248,17.184l 83.328-55.552c 10.816-7.2, 23.2-10.752, 35.424-10.752c 16.576,0, 32.928,6.368, 45.312,18.752
		l 61.568,61.568c 21.568,21.568, 24.928,55.36, 8,80.736l-55.552,83.328c 6.496,13.376, 12.256,27.136, 17.184,41.312l 98.048,19.616
		C 1002.432,347.616, 1024,373.952, 1024,404.448l0,87.040 C 1024,521.984, 1002.432,548.256, 972.512,554.24z M 861.888,384.8
		c-22.24-4.448-40.448-20.32-47.872-41.76c-4.128-11.808-8.928-23.264-14.304-34.368c-9.952-20.448-8.256-44.576, 4.32-63.424l 55.552-83.328
		l-61.568-61.568l-83.328,55.552c-10.688,7.136-23.072,10.752-35.488,10.752c-9.504,0-19.072-2.112-27.872-6.368
		c-11.136-5.376-22.56-10.24-34.432-14.368c-21.376-7.424-37.248-25.632-41.696-47.872l-19.68-98.112l-87.040,0 l-19.616,98.112
		c-4.448,22.24-20.32,40.448-41.728,47.872c-11.808,4.128-23.296,8.928-34.4,14.304c-8.832,4.32-18.368,6.432-27.904,6.432
		c-12.448,0-24.8-3.616-35.488-10.752l-83.328-55.552l-61.568,61.568l 55.52,83.328c 12.576,18.88, 14.208,43.008, 4.384,63.36
		c-5.376,11.136-10.208,22.56-14.336,34.432c-7.424,21.376-25.664,37.248-47.872,41.696l-98.080,19.68L 64,491.488l 98.112,19.616
		c 22.208,4.448, 40.448,20.32, 47.872,41.728c 4.128,11.808, 8.896,23.296, 14.304,34.4c 9.92,20.416, 8.256,44.544-4.352,63.392L 164.448,733.952
		L 225.984,795.52l 83.328-55.52C 320,732.864, 332.384,729.248, 344.8,729.248c 9.504,0, 19.040,2.112, 27.872,6.368c 11.104,5.376, 22.56,10.208, 34.4,14.336
		c 21.408,7.424, 37.28,25.664, 41.728,47.872l 19.648,98.080l 87.040,0.032l 19.616-98.112c 4.448-22.208, 20.32-40.448, 41.76-47.872
		c 11.808-4.128, 23.264-8.896, 34.368-14.304c 8.864-4.288, 18.368-6.4, 27.936-6.4c 12.448,0, 24.8,3.616, 35.488,10.752l 83.328,55.52l 61.568-61.568
		l-55.552-83.328c-12.576-18.88-14.176-42.976-4.384-63.36c 5.376-11.104, 10.24-22.56, 14.368-34.4c 7.424-21.408, 25.632-37.28, 47.872-41.728
		l 98.048-19.648L 960,404.448L 861.888,384.8zM 512,671.968c-123.68,0-224-100.32-224-224c0-123.712, 100.32-224, 224-224s 224,100.32, 224,224C 736,571.648, 635.68,671.968, 512,671.968z
		 M 512,251.936c-108.224,0-196,87.808-196,196c0,108.224, 87.776,196, 196,196c 108.192,0, 196-87.776, 196-196
		C 708,339.744, 620.192,251.936, 512,251.936zM 512,575.968c-70.72,0-128-57.28-128-128c0-70.688, 57.28-128, 128-128c 70.688,0, 128,57.312, 128,128C 640,518.656, 582.688,575.968, 512,575.968z
		 M 512,351.936c-52.992,0-96,43.008-96,96c0,52.992, 43.008,96, 96,96s 96-43.008, 96-96C 608,394.944, 564.992,351.936, 512,351.936z"  />
<glyph unicode="&#xe007;" d="M 1022.88,455.168c-0.32,1.344-0.128,2.784-0.64,4.096c-0.192,0.544-0.672,0.832-0.864,1.344
		c-0.32,0.768-0.256,1.632-0.672,2.368c-92.8,177.632-294.816,304.896-507.936,304.896c-213.152,0-415.136-127.072-508-304.672
		c-0.416-0.736-0.352-1.6-0.672-2.368c-0.224-0.512-0.672-0.8-0.864-1.344c-0.512-1.312-0.32-2.752-0.64-4.096
		c-0.576-2.4-1.12-4.704-1.12-7.168s 0.576-4.736, 1.12-7.168c 0.32-1.344, 0.128-2.784, 0.64-4.096
		c 0.192-0.544, 0.672-0.832, 0.864-1.344c 0.32-0.768, 0.256-1.632, 0.672-2.368c 92.832-177.632, 294.848-304.896, 508-304.896
		c 213.12,0, 415.136,127.072, 507.936,304.672c 0.448,0.736, 0.384,1.6, 0.672,2.368c 0.192,0.512, 0.672,0.8, 0.864,1.344
		c 0.512,1.312, 0.32,2.752, 0.64,4.096C 1023.424,443.264, 1024,445.568, 1024,448S 1023.424,452.768, 1022.88,455.168z M 512.736,192.384
		c-179.68,0-355.584,102.112-443.232,255.84c 88.128,153.92, 263.776,255.68, 443.232,255.68c 179.616,0, 355.552-102.144, 443.2-255.84
		C 867.808,294.112, 692.192,192.384, 512.736,192.384zM 512.736,576.032 C 521.568,576.032 528.672,568.896 528.672,560.032 C 528.672,551.232 521.536,544.064 512.736,544.064 L 512.736,544.032 C 459.808,544.032 416.768,500.992 416.768,448.128 C 416.768,439.296 409.6,432.128 400.8,432.128 C 391.968,432.128 384.8,439.296 384.8,448.128 C 384.8,518.688 441.984,575.872 512.544,576 C 512.608,576 512.672,576.032 512.736,576.032 ZM 512,672c-123.744,0-224-100.288-224-224c0-123.712, 100.288-224, 224-224c 123.68,0, 224,100.32, 224,224C 736,571.744, 635.68,672, 512,672z M 512,256
		c-105.888,0-192,86.112-192,192c0,105.888, 86.112,192, 192,192c 105.888,0, 192-86.112, 192-192C 704,342.112, 617.888,256, 512,256z"  />
<glyph unicode="&#xe008;" d="M 512,768C 229.216,768,0,448,0,448s 229.216-320, 512-320s 512,320, 512,320S 794.784,768, 512,768z M 512,256
			c-106.016,0-192,85.984-192,192s 85.984,192, 192,192s 192-85.984, 192-192S 618.016,256, 512,256z M 512,576c-70.688,0-128-57.312-128-128s 57.312-128, 128-128s 128,57.312, 128,128
			S 582.688,576, 512,576z"  />
<glyph unicode="&#xf1b7;" d="M 780,11l-172,53l 288,288l 53-172q-61-18 -106-63t-63-106zM 32,608q-32,33 -32,80.5t 33,79.5l 159,159q 32,33 79.5,33t 80.5-32l 512-512l-320-320zM 969,115l 55-179l-179,55q 16,43 48.5,75.5t 75.5,48.5z"  />
<glyph unicode="&#xf0f2;" d="M 960-64l-768,0 q-26,0 -45,18.5t-19,45.5l0,360 l 279-278q 18-19 46-17l 123,0 q 26,0 45,18.5t 19,45.5l0,127 q0,23 -19,41l-493,493l0,105 q0,27 19,45.5t 45,18.5l 448,0 l0-352 q0-13 9-22.5t 23-9.5l 351,0 l0-1 l0-574 q0-27 -18.5-45.5t-44.5-18.5zM 704,960q 26,0 44-18l 256-257
q 19-19 19-46l-319,0 l0,321 zM 79,516l-68,67q-11,12 -11,28t 11,27l 55,55q 11,11 27.5,11t 27.5-11l 67-67zM 576,225l0-64 q0-14 -9.5-23t-22.5-9l-64,0 q-14,0 -26,11l-324,324l 110,110l 324-324q 12-12 12-25z"  />
<glyph unicode="&#xf0cf;" d="M 960,768l-896,0 q-26,0 -45,18.5t-19,45t 19,45.5t 45,19l 320,0 q0,26 18.5,45t 45.5,19l 128,0 q 27,0 45.5-19t 18.5-45l 320,0 q 26,0 45-19t 19-45.5t-19-45t-45-18.5zM 128,704q 27,0 45.5-19t 18.5-45l0-512 q0-27 19-45.5t 45-18.5l 512,0 q 26,0 45,18.5t 19,45.5l0,512 q0,26 18.5,45
t 45,19t 45.5-19t 19-45l0-576 q0-53 -37.5-90.5t-90.5-37.5l-640,0 q-53,0 -90.5,37.5t-37.5,90.5l0,576 q0,26 18.5,45t 45.5,19z"  />
<glyph unicode="&#xf0ce;" d="M 960,768l-18,0 l-860,0 l-18,0 q-26,0 -45,18.5t-19,45t 18.5,45.5t 45.5,19l 320,0 q0,26 18.5,45t 45.5,19l 128,0 q 27,0 45.5-19t 18.5-45l 320,0 q 26,0 45-19t 19-45.5t-19-45t-45-18.5zM 960,64q0-53 -37.5-90.5t-90.5-37.5l-640,0 q-53,0 -90.5,37.5t-37.5,90.5l0,640 l 896,0 l0-640 zM 320,512
q0,26 -19,45t-45.5,19t-45-19t-18.5-45l0-384 q0-27 18.5-45.5t 45-18.5t 45.5,18.5t 19,45.5l0,384 zM 576,512q0,26 -19,45t-45.5,19t-45-19t-18.5-45l0-384 q0-27 18.5-45.5t 45-18.5t 45.5,18.5t 19,45.5l0,384 zM 832,512q0,26 -19,45t-45.5,19t-45-19t-18.5-45l0-384 
q0-27 18.5-45.5t 45-18.5t 45.5,18.5t 19,45.5l0,384 z"  />
<glyph unicode="&#xf0d0;" d="M 960,768l-896,0 q-26,0 -45,18.5t-19,45t 19,45.5t 45,19l 320,0 q0,26 18.5,45t 45.5,19l 128,0 q 27,0 45.5-19t 18.5-45l 320,0 q 26,0 45-19t 19-45.5t-19-45t-45-18.5zM 128,704l 768,0 q 26,0 45-19t 19-45l0-576 q0-53 -37.5-90.5t-90.5-37.5l-640,0 q-53,0 -90.5,37.5t-37.5,90.5l0,576 
q0,26 19,45t 45,19z"  />
<glyph unicode="&#xe009;" d="M 672,64c 17.696,0, 32,14.304, 32,32L 704,544 c0,17.696-14.304,32-32,32s-32-14.304-32-32l0-448 C 640,78.304, 654.304,64, 672,64zM 352,64c 17.664,0, 32,14.304, 32,32L 384,544 c0,17.696-14.336,32-32,32s-32-14.304-32-32l0-448 C 320,78.304, 334.336,64, 352,64zM 928,768l-128,0 L 800,832 c0,70.688-57.312,128-128,128L 352,960 C 281.312,960, 224,902.688, 224,832l0-64 L 96,768 L0,672c0-17.696, 14.336-32, 32-32l 96,0 l0-640 c0-35.328, 28.672-64, 64-64l 640,0 
		c 35.328,0, 64,28.672, 64,64L 896,640 l 96,0 c 17.696,0, 32,14.304, 32,32L 928,768z M 320,832c0,35.328, 28.672,64, 64,64l 256,0 c 35.328,0, 64-28.672, 64-64l0-64 L 320,768 L 320,832 z M 832,32
		c0-17.696-14.304-32-32-32L 224,0 c-17.664,0-32,14.304-32,32L 192,640 l 640,0 L 832,32 zM 512,64c 17.696,0, 32,14.304, 32,32L 544,544 c0,17.696-14.304,32-32,32s-32-14.304-32-32l0-448 C 480,78.304, 494.304,64, 512,64z"  />
<glyph unicode="&#xe00a;" d="M0-64l0,96 c0,143.488, 180.768,197.728, 419.168,219.584c-52.352,32.448-93.44,123.648-114.848,196.48
	C 304.224,448.064, 304.128,448, 304,448C 301.824,448, 256,505.312, 256,576c0,62.016-4.416,113.728, 32.224,125.44C 288.192,702.304, 288,703.136, 288,704
	c0,78.624, 40.672,147.52, 101.984,187.488C 405.824,931.008, 454.112,960, 512,960s 106.176-28.992, 122.016-68.512C 695.328,851.52, 736,782.624, 736,704
	c0-0.864-0.192-1.696-0.224-2.56C 772.416,689.728, 768,638.016, 768,576c0-70.688-50.816-128-48-128c-0.128,0-0.224,0.064-0.32,0.064
	c-21.408-72.8-62.496-164.032-114.848-196.48C 843.232,229.728, 1024,177.504, 1024,32l0-96 L0-64 z"  />
<glyph unicode="&#xe00b;" d="M 33.835,56.832l 60.331-60.331l 187.093,187.093l-58.752,61.909L 33.835,56.832z M 602.667,917.333C 393.6,917.333, 224,747.776, 224,538.667
			c0-81.877, 26.325-157.44, 70.485-219.435l 71.253-75.093c 64.896-52.352, 147.072-84.181, 236.928-84.181c 209.152,0, 378.667,169.557, 378.667,378.667
			S 811.819,917.333, 602.667,917.333z M 602.667,245.333c-161.749,0-293.333,131.584-293.333,293.333S 440.917,832, 602.667,832S 896,700.416, 896,538.667
			S 764.416,245.333, 602.667,245.333z"  />
<glyph unicode="&#xe00c;" d="M 1010.176,107.093c-71.552,171.008-209.664,250.581-316.715,287.531c 47.787,65.579, 73.941,161.792, 74.965,279.467
	c 1.749,198.656-162.048,252.629-248.875,253.355c-86.869,0.768-251.563-50.347-253.355-249.003c-1.024-117.632, 23.467-214.229, 70.059-280.704
	c-107.648-34.987-247.253-112.299-321.707-281.941l-17.621-40.021l 40.491-16.64c 8.832-3.541, 218.709-88.32, 473.685-90.539
	c 255.019-2.261, 466.347,78.805, 475.264,82.219l 40.747,15.872L 1010.176,107.093z M 518.528,842.112c 17.024-0.341, 165.973-7.595, 164.565-167.296
	c-1.109-127.829-35.883-225.024-95.232-266.709l-73.429-51.541l-72.363,52.779c-58.667,42.752-91.691,140.544-90.539,268.373
	C 352.939,837.461, 502.016,842.069, 518.528,842.112z M 511.872,53.888c-172.629,1.493-326.315,44.672-398.549,68.565c 78.080,136.747, 210.389,190.165, 311.979,210.645
	l 89.131,17.963l 88.789-19.456c 101.248-22.315, 232.619-78.037, 308.352-216.064C 839.083,92.843, 685.013,52.352, 511.872,53.888z"  />
<glyph unicode="&#xe00d;" d="M 1023.403,448l-113.408,130.603l 15.744,172.885L 757.973,789.76l-87.936,149.419L 512,870.357L 353.877,939.179L 266.027,789.76L 98.219,751.445L 113.92,578.603
			L 0.597,448l 113.323-130.603l-15.701-172.928l 167.851-38.229l 87.936-149.419L 512,25.557l 158.037-68.693l 87.851,149.333l 167.893,38.229l-15.744,173.013L 1023.403,448z
			 M 704.811,179.925l-68.821-117.077L 512,116.693l-123.947-53.888l-68.907,117.077l-131.669,30.123l 12.331,135.509L 110.848,448l 88.96,102.357L 187.477,685.952
			l 131.755,30.123l 68.736,116.992L 512,779.221l 123.947,53.888l 68.821-116.992l 131.669-30.123l-12.331-135.509L 913.067,448l-88.96-102.443l 12.331-135.595
			L 704.811,179.925z M 512,720.171c-148.651,0-269.611-122.112-269.611-272.171c0-150.101, 120.96-272.171, 269.611-272.171s 269.611,122.069, 269.611,272.171
			C 781.611,598.059, 660.651,720.171, 512,720.171z M 512,217.728c-125.781,0-228.139,103.296-228.139,230.272S 386.219,678.272, 512,678.272
			c 125.739,0, 228.139-103.296, 228.139-230.272S 637.739,217.728, 512,217.728z"  />
<glyph unicode="&#xe00e;" d="M 938.667,576l-85.333,0 L 853.333,917.333 L 170.667,917.333 l0-341.333 L 85.333,576 c-46.933,0-85.333-38.4-85.333-85.333l0-426.667 c0-46.933, 28.8-85.333, 64-85.333L 170.667-21.333 l0-42.667 l 682.667,0 l0,42.667 l 106.667,0 c 35.2,0, 64,38.4, 64,85.333L 1024,490.667 C 1024,537.6, 985.6,576, 938.667,576z
	 M 170.667,21.333L 128,21.333 l0,213.333 l 42.667,0 L 170.667,21.333 z M 768,21.333L 256,21.333 l0,213.333 l 85.333,0 l0-42.667 l 341.333,0 l0,42.667 l 85.333,0 L 768,21.333 z M 768,576L 256,576 L 256,832 l 512,0 L 768,576 z M 896,21.333l-42.667,0 l0,213.333 l 42.667,0 L 896,21.333 z M 938.667,448l-85.333,0 l0,42.667 l 85.333,0 L 938.667,448 zM 341.333,106.667l 341.333,0 l0,42.667 L 341.333,149.333 L 341.333,106.667 z"  />
<glyph unicode="&#xe00f;" d="M 960,768L 704,768 L 704,896 c0,35.376-28.624,64-64,64L 384,960 c-35.376,0-64-28.624-64-64l0-128 L 64,768 
	c-35.376,0-64-28.624-64-64l0-64 l 128,0 l0-640 c0-35.376, 28.624-64, 64-64l 640,0 c 35.376,0, 64,28.624, 64,64L 896,640 l 128,0 l0,64 
	C 1024,739.376, 995.376,768, 960,768z M 448,832l 128,0 l0-64 l-128,0 L 448,832 z M 768,64L 256,64 L 256,640 l 512,0 L 768,64 z"  />
<glyph unicode="&#xe010;" d="M 576,512L 704,512L 704,192L 576,192zM 960,768L 704,768 L 704,896 c0,35.376-28.624,64-64,64L 384,960 c-35.376,0-64-28.624-64-64l0-128 L 64,768 c-35.376,0-64-28.624-64-64l0-64 l 64,0 l0-640 
		c0-35.376, 28.624-64, 64-64l 768,0 c 35.376,0, 64,28.624, 64,64L 960,640 l 64,0 l0,64 C 1024,739.376, 995.376,768, 960,768z M 448,832l 128,0 l0-64 l-128,0 L 448,832 z
		 M 832,64L 192,64 L 192,640 l 640,0 L 832,64 zM 320,512L 448,512L 448,192L 320,192z"  />
<glyph unicode="&#xe011;" d="M 1024,512l0-128 l-133.812,0 c-9.562-56.688-32.094-108.75-63.656-154.062l 134.218-116.688
	l-92.376-114.124l-147.968,128.688c-43.094-28-91.624-48.438-144.406-57.376L 576-64 l-128,0 l0,133.812 c-52.938,8.938-101.532,29.562-144.656,57.812
	l-147.718-128.5l-92.376,114.124l 134.438,116.938C 166.376,275.438, 144,327.376, 134.438,384L0,384 l0,128 l 133.812,0 
	c 9.562,56.688, 32.094,108.75, 63.656,154.062L 63.25,782.75l 92.376,114.124l 147.968-128.688c 43.094,28, 91.624,48.438, 144.406,57.376L 448,960 l 128,0 
	l0-134.438 c 52.782-8.938, 101.312-29.376, 144.406-57.376l 147.968,128.688l 92.376-114.124l-134.218-116.688
	c 31.562-45.312, 54.094-97.376, 63.656-154.062L 1024,512 z M 512,640c-106.032,0-192-85.938-192-192s 85.968-192, 192-192s 192,85.938, 192,192
	S 618.032,640, 512,640z"  />
<glyph unicode="&#xe012;" d="M 763.688,469.188C 766.062,483.124, 768,497.312, 768,512l0,192 
	C 768,845.376, 653.376,960, 512,960S 256,845.376, 256,704l0-192 c0-14.688, 1.938-28.876, 4.312-42.812C 105.438,414.188,0,311.25,0,192l0-192 
	c0-35.376, 28.624-64, 64-64l 896,0 c 35.376,0, 64,28.624, 64,64l0,192 C 1024,311.25, 918.562,414.188, 763.688,469.188z M 384,704
	c0,70.688, 57.312,128, 128,128s 128-57.312, 128-128l0-192 c0-70.688-57.312-128-128-128s-128,57.312-128,128L 384,704 z M 896,64L 128,64 l0,128 
	c0,69.124, 73.624,129.188, 183.188,163C 358.062,295.124, 430.124,256, 512,256s 153.938,39.124, 200.812,99
	C 822.376,321.188, 896,261.124, 896,192L 896,64 z"  />
<glyph unicode="&#xe013;" d="M 995.828-35.826c-37.566-37.564-98.45-37.564-136.016,0l-169.726,169.726
	c-69.776-44.764-152.26-71.434-241.318-71.434C 200.938,62.466,0,263.374,0,511.234S 200.938,960, 448.768,960
	c 247.862,0, 448.768-200.904, 448.768-448.766c0-89.028-26.704-171.542-71.436-241.352l 169.728-169.726
	C 1033.39,62.592, 1033.39,1.738, 995.828-35.826z M 448.768,831.782c-177.022,0-320.548-143.494-320.548-320.546
	s 143.526-320.548, 320.548-320.548c 177.052,0, 320.548,143.496, 320.548,320.548S 625.82,831.782, 448.768,831.782z"  />
<glyph unicode="&#x20;" horiz-adv-x="512" />
</font></defs></svg>